{
    "Categories": "Qt;KDE;X-KDE-settings-system;",
    "KPlugin": {
        "Description": "Wireless network setting",
        "Description[ar]": "إعدادات الشبكة اللاسلكية",
        "Description[az]": "Naqilsiz şəbəkə ayarları",
        "Description[bg]": "Настройки на безжична мрежа",
        "Description[ca@valencia]": "Configuració de la xarxa sense fil",
        "Description[ca]": "Configuració de la xarxa sense fil",
        "Description[en_GB]": "Wireless network setting",
        "Description[es]": "Preferencias de la red inalámbrica",
        "Description[eu]": "Haririk gabeko sare ezarpena",
        "Description[fi]": "Langattoman verkon asetukset",
        "Description[fr]": "Paramètre de réseau sans fil",
        "Description[hu]": "Vezeték nélküli hálózati beállítások",
        "Description[ia]": "Preferentia de rete sin cablos",
        "Description[it]": "Impostazioni rete senza fili",
        "Description[ko]": "무선 네트워크 설정",
        "Description[nl]": "Instelling van draadloos netwerk",
        "Description[nn]": "Innstilling for trådlaust nettverk",
        "Description[pl]": "Ustawienia sieci bezprzewodowej",
        "Description[pt]": "Configuração da rede sem-fios",
        "Description[pt_BR]": "Configurações da rede sem fio",
        "Description[ro]": "Configurare rețea fără fir",
        "Description[ru]": "Параметры беспроводного соединения",
        "Description[sk]": "Nastavenia bezdrôtovej siete",
        "Description[sl]": "Nastavitve brezžičnega omrežja",
        "Description[sv]": "Trådlös nätverksinställning",
        "Description[tr]": "Kablosuz ağ ayarı",
        "Description[uk]": "Налаштовування бездротової мережі",
        "Description[x-test]": "xxWireless network settingxx",
        "Description[zh_CN]": "无线网络设置",
        "Description[zh_TW]": "無線網路設定",
        "FormFactors": [
            "handset",
            "tablet",
            "mediacenter"
        ],
        "Icon": "network-wireless-symbolic",
        "Name": "Wi-Fi",
        "Name[ar]": "واي فاي",
        "Name[ast]": "Wi-Fi",
        "Name[az]": "Wi-Fi",
        "Name[bg]": "Wi-Fi",
        "Name[ca@valencia]": "Wi-Fi",
        "Name[ca]": "Wi-Fi",
        "Name[cs]": "Wi-Fi",
        "Name[da]": "Wi-fi",
        "Name[de]": "Wi-Fi",
        "Name[en_GB]": "Wi-Fi",
        "Name[es]": "Wifi",
        "Name[et]": "Wi-Fi",
        "Name[eu]": "Wi-Fi",
        "Name[fi]": "Langaton verkko",
        "Name[fr]": "Wi-Fi",
        "Name[gl]": "Sen fíos",
        "Name[hsb]": "Wi-Fi",
        "Name[hu]": "Wi-Fi",
        "Name[ia]": "Wi-Fi",
        "Name[id]": "Wi-Fi",
        "Name[it]": "Wi-fi",
        "Name[ko]": "Wi-Fi",
        "Name[lt]": "Belaidis (Wi-Fi)",
        "Name[ml]": "വൈ-ഫൈ",
        "Name[nl]": "Wi-Fi",
        "Name[nn]": "Wi-Fi",
        "Name[pa]": "Wi-Fi",
        "Name[pl]": "Wi-Fi",
        "Name[pt]": "Wi-Fi",
        "Name[pt_BR]": "Wi-Fi",
        "Name[ro]": "Wi-Fi",
        "Name[ru]": "Wi-Fi",
        "Name[sk]": "Wi-Fi",
        "Name[sl]": "Wi-Fi",
        "Name[sv]": "WIFI",
        "Name[ta]": "அருகலை",
        "Name[tg]": "Wi-Fi",
        "Name[tr]": "Wi-Fi",
        "Name[uk]": "Wi-Fi",
        "Name[x-test]": "xxWi-Fixx",
        "Name[zh_CN]": "Wi-Fi",
        "Name[zh_TW]": "Wi-Fi",
        "ServiceTypes": [
            "KCModule"
        ]
    },
    "X-KDE-Keywords": "wifi,network",
    "X-KDE-Keywords[ar]": "واي فاي,شبكة",
    "X-KDE-Keywords[ast]": "wifi,rede",
    "X-KDE-Keywords[az]": "wifi,network,şəbəkə",
    "X-KDE-Keywords[ca@valencia]": "wifi,xarxa",
    "X-KDE-Keywords[ca]": "wifi,xarxa",
    "X-KDE-Keywords[cs]": "wifi,síť",
    "X-KDE-Keywords[da]": "wifi,netværk",
    "X-KDE-Keywords[de]": "netzwerk",
    "X-KDE-Keywords[en_GB]": "wifi,network",
    "X-KDE-Keywords[es]": "wifi,red",
    "X-KDE-Keywords[et]": "wifi,võrk",
    "X-KDE-Keywords[eu]": "wifi,haririk-gabeko,network,sarea",
    "X-KDE-Keywords[fi]": "wifi,langaton,verkko",
    "X-KDE-Keywords[fr]": "wifi,réseau",
    "X-KDE-Keywords[gl]": "sen fíos,wifi,rede",
    "X-KDE-Keywords[hsb]": "wifi,network,syć",
    "X-KDE-Keywords[hu]": "wifi,hálózat",
    "X-KDE-Keywords[ia]": "wifi,network",
    "X-KDE-Keywords[id]": "wifi,jaringan",
    "X-KDE-Keywords[it]": "wifi,rete",
    "X-KDE-Keywords[ko]": "wifi,network,네트워크,무선",
    "X-KDE-Keywords[lt]": "wifi,belaidis,bevielis,tinklas",
    "X-KDE-Keywords[ml]": "വൈഫൈ,ശൃംഖല",
    "X-KDE-Keywords[nl]": "wifi,netwerk",
    "X-KDE-Keywords[nn]": "wifi,nettverk,trådlaust",
    "X-KDE-Keywords[pa]": "wifi,ਨੈੱਟਵਰਕ",
    "X-KDE-Keywords[pl]": "wifi,sieć",
    "X-KDE-Keywords[pt]": "wifi,rede",
    "X-KDE-Keywords[pt_BR]": "wifi,sem fio,rede",
    "X-KDE-Keywords[ro]": "wifi,rețea",
    "X-KDE-Keywords[ru]": "wifi,network,сеть",
    "X-KDE-Keywords[sk]": "wifi,network",
    "X-KDE-Keywords[sl]": "wifi,network,omrežje",
    "X-KDE-Keywords[sv]": "wifi,nätverk",
    "X-KDE-Keywords[ta]": "wifi,network,அருகலை,பிணையம்,வைஃபை,கம்பியில்லா",
    "X-KDE-Keywords[tg]": "wifi,шабака",
    "X-KDE-Keywords[tr]": "wifi, ağ",
    "X-KDE-Keywords[uk]": "wifi,network,вайфай,мережа",
    "X-KDE-Keywords[x-test]": "xxwifixx,xxnetworkxx",
    "X-KDE-Keywords[zh_CN]": "wifi,network,网络,无线",
    "X-KDE-Keywords[zh_TW]": "wifi,network,網路,無線網路",
    "X-KDE-ParentApp": "kcontrol",
    "X-KDE-System-Settings-Parent-Category": "network",
    "X-KDE-Weight": 70
}
